[
    {
      "id": 124540,
      "name": "Name1 Lastname1",
      "job_title": null,
      "avatar_file": "https://www.gravatar.com/avatar/d41d8cd98f00b204e9800998ecf8427e?d=https%3A%2F%2F4f924a82f1b7a7989f8c-8c58e9ee3a00416a4085586f251e9af6.ssl.cf2.rackcdn.com%2Favatar-kale.png&s=40",
      "department": {},
      "skills": [],
      "email": null,
      "description": null,
      "mobile": null,
      "telephone": null,
      "im": null,
      "wk_day_hrs": null,
      "non_wk_days": null,
      "employee_type": 1,
      "contractor": 1,
      "access_rights": 0,
      "access_id": 0,
      "department_filter_id": null,
      "auto_email": -1,
      "created": "2015-09-18",
      "active": 1
    },
    {
      "id": 124531,
      "name": "Name2 Lastname2",
      "job_title": null,
      "avatar_file": "https://www.gravatar.com/avatar/d41d8cd98f00b204e9800998ecf8427e?d=https%3A%2F%2F4f924a82f1b7a7989f8c-8c58e9ee3a00416a4085586f251e9af6.ssl.cf2.rackcdn.com%2Favatar-kale.png&s=40",
      "department": {},
      "skills": [],
      "email": null,
      "description": null,
      "mobile": null,
      "telephone": null,
      "im": null,
      "wk_day_hrs": null,
      "non_wk_days": null,
      "employee_type": 1,
      "contractor": 0,
      "access_rights": 0,
      "access_id": 0,
      "department_filter_id": null,
      "auto_email": -1,
      "created": "2015-09-18",
      "active": 1
    },
    {
      "id": 124528,
      "name": "Name3 Lastname3",
      "job_title": null,
      "avatar_file": "https://www.gravatar.com/avatar/d41d8cd98f00b204e9800998ecf8427e?d=https%3A%2F%2F4f924a82f1b7a7989f8c-8c58e9ee3a00416a4085586f251e9af6.ssl.cf2.rackcdn.com%2Favatar-kale.png&s=40",
      "department": {},
      "skills": [],
      "email": null,
      "description": null,
      "mobile": null,
      "telephone": null,
      "im": null,
      "wk_day_hrs": null,
      "non_wk_days": null,
      "employee_type": 1,
      "contractor": 0,
      "access_rights": 0,
      "access_id": 0,
      "department_filter_id": null,
      "auto_email": -1,
      "created": "2015-09-18",
      "active": 1
    },
    {
      "id": 124532,
      "name": "Name4 Lastname4",
      "job_title": null,
      "avatar_file": "https://www.gravatar.com/avatar/d41d8cd98f00b204e9800998ecf8427e?d=https%3A%2F%2F4f924a82f1b7a7989f8c-8c58e9ee3a00416a4085586f251e9af6.ssl.cf2.rackcdn.com%2Favatar-kale.png&s=40",
      "department": {},
      "skills": [],
      "email": null,
      "description": null,
      "mobile": null,
      "telephone": null,
      "im": null,
      "wk_day_hrs": null,
      "non_wk_days": null,
      "employee_type": 1,
      "contractor": 0,
      "access_rights": 0,
      "access_id": 0,
      "department_filter_id": null,
      "auto_email": -1,
      "created": "2015-09-18",
      "active": 1
    }
]